{
  "type": "minecraft:dolphin",
  "subtypes": [],
  "name": "entity.minecraft.dolphin",
  "name_color": "0x666688",
  "gui_scale": 1,
  "gui_x_offset": 0,
  "gui_y_offset": 0,
  "gui_z_offset": 0,
  "sim_cost": 40,
  "input": {
	"item": "hostilenetworks:empty_prediction"
  },
  "base_drop": {
	"item": "hostilenetworks:overworld_prediction"
  },
  "trivia": "minecraft.trivia.dolphin",
  "fabricator_drops": [{
	"item": "minecraft:cod",
	"count": 4
  }]
}
